{
  "properties": {
    "type": {
      "type": "byte"
    },
    "note_id": {
      "type": "keyword"
    },
    "user_id": {
      "type": "keyword"
    },
    "title": {
      "type": "text"
    },
    "content": {
      "type": "text",
      "fields": {
        "ngram": {
          "type": "text",
          "analyzer": "note_analyzer"
        }
      }
    },
    "tags": {
      "type": "text",
      "analyzer": "tag_analyzer"
    },
    "timestamp": {
      "type": "date",
      "format": "yyyy-MM-dd'T'HH:mm:ss.SSSS'Z'||yyyy-MM-dd'T'HH:mm:ss.SSSSSS"
    },
    "created": {
      "type": "date",
      "format": "yyyy-MM-dd'T'HH:mm:ss.SSSS'Z'||yyyy-MM-dd'T'HH:mm:ss.SSSSSS"
    },
    "published": {
      "type": "date",
      "format": "yyyy-MM-dd'T'HH:mm:ss.SSSS'Z'||yyyy-MM-dd'T'HH:mm:ss.SSSSSS"
    },
    "authors": {
      "type": "text"
    }
  }
}